\relax 
\citation{spiegelman93a}
\citation{mckenzie84}
\citation{scott86}
\citation{mckenzie84}
\@writefile{toc}{\contentsline {section}{\numberline {1}Introduction}{1}}
\@writefile{toc}{\contentsline {section}{\numberline {2}Governing Equations}{1}}
\newlabel{s:equation1}{{2}{1}}
\@writefile{toc}{\contentsline {subsection}{\numberline {2.1}Conservation of mass}{1}}
\newlabel{ss:firstSubSection}{{2.1}{1}}
\newlabel{s:equation2}{{2.1}{1}}
\citation{mckenzie84}
\newlabel{s:equation3}{{2.1}{2}}
\newlabel{s:equation4}{{2.1}{2}}
\@writefile{toc}{\contentsline {subsection}{\numberline {2.2}Conservation of momentum}{2}}
\newlabel{ss:secondSubSection}{{2.2}{2}}
\newlabel{eq:fbal_mi}{{7}{2}}
\newlabel{eq:fbal_fi}{{8}{3}}
\newlabel{eq:interphase}{{9}{3}}
\newlabel{eq:stress_tensor}{{10}{3}}
\newlabel{eq:dragcoef}{{11}{3}}
\newlabel{eq:fbal_f}{{12}{3}}
\newlabel{eq:stress_tensor_compressible}{{13}{3}}
\newlabel{eq:stress_matrix}{{14}{3}}
\newlabel{eq:pressure_difference}{{15}{4}}
\newlabel{eq:fbal_m}{{16}{4}}
\citation{takei09a}
\@writefile{toc}{\contentsline {subsection}{\numberline {2.3}Constituitive Equations}{5}}
\newlabel{ss:thirdSubSection}{{2.3}{5}}
\newlabel{eq:permeability_law}{{21}{5}}
\newlabel{eq:bulkviscosity}{{22}{5}}
\@writefile{toc}{\contentsline {section}{\numberline {3}Nondimensionalisation}{6}}
\newlabel{eq:scalings}{{23}{6}}
\newlabel{eq:fbal_m_etaconst}{{24}{6}}
\newlabel{eq:refcompaction}{{3}{6}}
\newlabel{eq:Boussinesqmass}{{26}{6}}
\newlabel{eq:Nondim_mass}{{27}{6}}
\newlabel{eq:Boussinesqnomelt1}{{28}{6}}
\newlabel{eq:Boussinesqnomelt2}{{29}{6}}
\newlabel{eq:Boussinesqnomelt3}{{30}{6}}
\citation{spiegelman03b}
\citation{holtzman03a}
\citation{spiegelman03b}
\newlabel{eq:NondimDarcy}{{31}{7}}
\newlabel{eq:NondimStokes1}{{32}{7}}
\newlabel{eq:NondimStokes2}{{33}{7}}
\@writefile{toc}{\contentsline {section}{\numberline {4}Linear analysis of porosity band formation}{7}}
\newlabel{eq:reform1}{{37}{7}}
\newlabel{eq:reform2}{{38}{7}}
\newlabel{eq:reform3}{{39}{7}}
\citation{spiegelman03b}
\citation{spiegelman03b}
\newlabel{eq:perturbations}{{41}{8}}
\newlabel{eq:pb_expansion_vm}{{41c}{8}}
\newlabel{eq:Spieg03}{{48}{9}}
\@writefile{toc}{\contentsline {section}{\numberline {5}Discretisation}{9}}
\@writefile{toc}{\contentsline {subsection}{\numberline {5.1}Discretisation of Stokes' equations}{9}}
\newlabel{eq:stokesweak}{{54}{10}}
\newlabel{eq:weakformStokes1}{{58}{10}}
\citation{spiegelman03b}
\newlabel{eq:weakformStokes2}{{63}{11}}
\newlabel{eq:weakformapproxStokes}{{64}{11}}
\@writefile{toc}{\contentsline {subsection}{\numberline {5.2}Discretisation of the advection equation}{11}}
\newlabel{eq:weakformapproxAdvection}{{68}{11}}
\citation{takei12b}
\citation{katz12b}
\@writefile{toc}{\contentsline {section}{\numberline {6}Results}{12}}
\@writefile{toc}{\contentsline {subsection}{\numberline {6.1}Constant shear viscosity case}{12}}
\@writefile{lot}{\contentsline {table}{\numberline {1}{\ignorespaces Constant Viscosity Test Case\relax }}{13}}
\providecommand*\caption@xref[2]{\@setref\relax\@undefined{#1}}
\newlabel{table:constporosity}{{1}{13}}
\@writefile{lof}{\contentsline {figure}{\numberline {1}{\ignorespaces t=0\relax }}{13}}
\@writefile{lof}{\contentsline {figure}{\numberline {2}{\ignorespaces t=1.5\relax }}{13}}
\@writefile{lof}{\contentsline {figure}{\numberline {3}{\ignorespaces t=3\relax }}{13}}
\@writefile{lof}{\contentsline {figure}{\numberline {4}{\ignorespaces Simulation of the porosity evolution, with initial wavenumber $k_0=4\pi $ and initial perturbation angle $\theta _0=\pi /6$. In the case of constant viscosity, simple shear only rotates the initial porosity perturbation. \relax }}{13}}
\@writefile{lof}{\contentsline {figure}{\numberline {5}{\ignorespaces t=0\relax }}{14}}
\@writefile{lof}{\contentsline {figure}{\numberline {6}{\ignorespaces t=1.5\relax }}{14}}
\@writefile{lof}{\contentsline {figure}{\numberline {7}{\ignorespaces t=3\relax }}{14}}
\@writefile{lof}{\contentsline {figure}{\numberline {8}{\ignorespaces Simulation of the porosity evolution for a variable viscosity, with initial wavenumber $k_0=4\pi $ and initial perturbation angle $\theta _0=\pi /6$. The shear viscosity is taken to be mildly porosity weakening by taking $\lambda =-1$. Between $\theta = 0$ and $\pi /2$ the amplitude of the perturbation grows, and when the angle to the shear plane exceeds $\theta = \pi /2$, the amplitude begins to decrease again. \relax }}{14}}
\bibdata{PlaneWaveBenchmark}
\bibcite{holtzman03a}{1}
\@writefile{toc}{\contentsline {subsection}{\numberline {6.2}Variable shear vicosity case}{15}}
\@writefile{lof}{\contentsline {figure}{\numberline {9}{\ignorespaces Here we compare the numerical (boxes) and analytical (line) perturbation growth rates at t=0, varying the initial perturbation angle from $0$ to $180^\circ $. We calculate the instantaneous numerical growth rate at intervals of $15^\circ $.\relax }}{15}}
\newlabel{fig:Comparison}{{9}{15}}
\bibcite{katz12b}{2}
\bibcite{mckenzie84}{3}
\bibcite{scott86}{4}
\bibcite{spiegelman93a}{5}
\bibcite{spiegelman03b}{6}
\bibcite{takei09a}{7}
\bibcite{takei12b}{8}
\bibstyle{plain}
\@writefile{lot}{\contentsline {table}{\numberline {2}{\ignorespaces Computed values for the analytical and numerical perturbation growth rates\relax }}{16}}
\newlabel{table:comparison}{{2}{16}}
